[Event "Pohár města Říčany 2018"]
[Site "Městské kulturní středisko"]
[Date "2019.08.25"]
[Round "2.15"]
[White "Novotny, Martin"]
[Black "Voracek, Zdenek"]
[Result "1-0"]
[ECO "A00"]
[WhiteElo "2178"]
[BlackElo "1938"]
[PlyCount "39"]
[EventDate "2019.08.24"]

1. d4 d5 2. c4 e6 3. Nf3 Nf6 4. g3 Nbd7 5. Bg2 Be7 6. O-O O-O 7. Qc2 b6 8. Nc3
Bb7 9. cxd5 exd5 10. Rd1 Qc8 11. Bf4 c6 12. Rac1 Rd8 13. Bh3 a6 14. Ne5 b5 15.
Qb1 c5 16. dxc5 d4 17. c6 dxc3 18. cxb7 Qxb7 19. Bg2 Qb6 20. Nxd7 1-0