[Event "Pohár města Říčany 2020"]
[Site "Městské kulturní středisko U labutě"]
[Date "2020.08.23"]
[Round "3.21"]
[White "Kalvach, Ladislav"]
[Black "Kopecky, Jiri"]
[Result "0-1"]
[WhiteElo "1761"]
[BlackElo "1921"]
[ECO "A15"]
[PlyCount "0"]
[EventDate "2020.08.22"]
[Opening "English: 1...Nf6 (Anglo-Indian defence)"]

1. c4 Nf6 2. g3 c5 3. Bg2 Nc6 4. Nc3 g6 5. e3 Bg7 6. Nge2 d6 7. O-O Bg4 8. h3
Bd7 9. d4 O-O 10. b3 Qa5 11. Bd2 cxd4 12. Nb5 Qd8 13. exd4 a6 14. Nbc3 Qc8
15. Kh2 Nd8 16. Rc1 Bc6 17. d5 Bd7 18. Nf4 Re8 19. Re1 b6 20. Ne4 a5 21. g4 h6
22. Nxf6+ Bxf6 23. Qc2 Kg7 24. Be4 Be5 25. Bc3 f5 26. gxf5 Bxf5 27. Bxe5+ dxe5
28. Nxg6 Kxg6 29. Re3 Nf7 30. Rg1+ Kf6 31. Rf3 Nd6 32. Bxf5 Nxf5 33. Qe4 e6
34. Qh4+ Kf7 35. Qxh6 Ke7 36. Qh7+ Kd6 37. dxe6 Nd4 38. Rd1 Qxe6 39. Rg3 Re7
40. Qe4 Rf8 41. Rg6 Rf6 42. Rxf6 Qxf6 43. f4 Kc7 44. fxe5 Qf2+ 45. Kh1 Nf3
46. Qf4 Rh7 47. e6+ Kb7 48. Qe4+ Ka7 49. Qxh7+ Ka6 0-1