[Event "Pohár města Říčany 2018"]
[Site "Městské kulturní středisko"]
[Date "2019.08.24"]
[Round "1.14"]
[White "Nemecek, Pavel"]
[Black "Stanek, Ondrej"]
[Result "1/2-1/2"]
[ECO "A00"]
[WhiteElo "1801"]
[BlackElo "2047"]
[PlyCount "102"]
[EventDate "2019.08.24"]

1. e4 c6 2. Nc3 d5 3. Nf3 Bg4 4. h3 Bxf3 5. Qxf3 e6 6. d3 Nd7 7. Bd2 Ngf6 8. g4
h6 9. Bg2 Bd6 10. O-O-O d4 11. Ne2 Ne5 12. Qg3 Ng6 13. f4 e5 14. Qf2 exf4 15.
Qxd4 Nh4 16. e5 f3 17. exd6 fxg2 18. Rhg1 O-O 19. Qf2 Ng6 20. Rxg2 Qxd6 21. h4
Qe6 22. g5 Ng4 23. Qd4 h5 24. Ng3 Rad8 25. Qc3 Qe5 26. Nxh5 Qxc3 27. bxc3 N4e5
28. Rh1 Nf3 29. Nf4 Nxd2 30. Nxg6 fxg6 31. Kxd2 Rf4 32. Re2 Kf7 33. h5 gxh5 34.
Rxh5 Rd5 35. c4 Rdf5 36. Rh8 Kg6 37. Rb8 Rf7 38. Re5 R4f5 39. Rbe8 Kxg5 40.
R5e6 R5f6 41. R6e7 g6 42. Re5+ Rf5 43. Re4 Rg7 44. Ke3 Ra5 45. Kd4 Rd7+ 46. Kc3
Rf5 47. d4 Rf3+ 48. Kd2 Rf4 49. R8e5+ Kg4 50. Ke3 Rxe4+ 51. Kxe4 Rf7 1/2-1/2