[Event "Pohár města Říčany 2020"]
[Site "Městské kulturní středisko U labutě"]
[Date "2020.08.22"]
[Round "1.8"]
[White "Rudiano, Nicolas"]
[Black "Lhotsky, Zdenek"]
[Result "1-0"]
[WhiteElo "2077"]
[BlackElo "1831"]
[ECO "B92"]
[PlyCount "0"]
[EventDate "2020.08.22"]
[Opening "Sicilian: Najdorf, Opovcensky variation"]

1. e4 c5 2. Nf3 d6 3. d4 cxd4 4. Nxd4 Nf6 5. Nc3 a6 6. Be2 e5 7. Nb3 Be7 8. a4
O-O 9. O-O Be6 10. Be3 Nbd7 11. a5 Rc8 12. f3 Qc7 13. Qd2 Nc5 14. Nd5 Nxd5 * 1-0
