[Event "Pohár města Říčany 2020"]
[Site "Městské kulturní středisko U labutě"]
[Date "2020.08.23"]
[Round "3.23"]
[White "Koper, Stefan"]
[Black "Kuhnmund, Ivan"]
[Result "1/2-1/2"]
[WhiteElo "1871"]
[BlackElo "1682"]
[ECO "A80"]
[PlyCount "0"]
[EventDate "2020.08.22"]
[Opening "Dutch: Korchnoi attack"]

1. d4 f5 2. h3 d6 3. c4 Nf6 4. Nc3 e6 5. Bg5 Be7 6. Bxf6 Bxf6 7. e3 O-O 8. Qc2
Qe7 9. Bd3 g6 10. Nf3 c6 11. e4 fxe4 12. Nxe4 Bg7 13. c5 d5 14. Nd6 Nd7 15. O-O
e5 16. dxe5 Nxe5 17. Nxe5 Bxe5 18. Rac1 Qf6 19. Nxc8 Raxc8 20. b4 Bc3 21. Rb1
Rf7 22. Be2 Rd8 23. Rb3 Be5 24. Rf3 Qg5 25. Rxf7 Kxf7 26. Qd3 Qf4 27. Qf3 Qxf3
28. Bxf3 Bc3 29. b5 a6 30. bxa6 bxa6 31. Bg4 Ke7 32. Rb1 h5 33. Rb7+ Kf6 34. Bd7 * 
1/2-1/2