[Event "Pohár města Říčany 2020"]
[Site "Městské kulturní středisko U labutě"]
[Date "2020.08.24"]
[Round "4.11"]
[White "Hejsek, Lukas"]
[Black "Maslo, Ondrej"]
[Result "1/2-1/2"]
[WhiteElo "1991"]
[BlackElo "1834"]
[ECO "D78"]
[PlyCount "0"]
[EventDate "2020.08.22"]
[Opening "Neo-Gruenfeld: 6.O-O c6"]

1. d4 Nf6 2. Nf3 g6 3. g3 Bg7 4. Bg2 O-O 5. O-O d5 6. c4 c6 7. Qb3 Nbd7 8. cxd5
cxd5 9. Nc3 Nb6 10. Bf4 Ne4 11. Rad1 Bd7 12. a4 Nxc3 13. bxc3 Qe8 14. a5 Ba4
15. Qb4 Bxd1 16. axb6 Bxe2 17. bxa7 Bc4 18. Nd2 Ba6 19. Qb6 Qd8 20. Bc7 Qd7
21. Nb3 Rfc8 22. Bb8 Qd8 1/2-1/2