[Event "Pohár města Říčany 2018"]
[Site "Městské kulturní středisko"]
[Date "2019.08.25"]
[Round "2.32"]
[White "Nentvich, Libor"]
[Black "Kuhnmund, Ivan"]
[Result "0-1"]
[ECO "A00"]
[WhiteElo "1822"]
[BlackElo "1631"]
[PlyCount "80"]
[EventDate "2019.08.24"]

1. e4 c5 2. Nf3 a6 3. d4 cxd4 4. Nxd4 Nf6 5. e5 Qa5+ 6. Nc3 Qxe5+ 7. Be3 Nd5 8.
Nf3 Nxe3 9. Nxe5 Nxd1 10. Rxd1 Nc6 11. Nd5 Rb8 12. Nc7+ Kd8 13. Nxf7+ Kxc7 14.
Nxh8 d6 15. Nf7 h6 16. a3 Be6 17. Nh8 g5 18. Ng6 Bg7 19. b4 Bc3+ 20. Ke2 Bf5
21. Rd3 Bxd3+ 22. Kxd3 Bb2 23. Ke4 Rg8 24. Nxe7 Nxe7 25. a4 Rf8 26. f3 Rf4+ 27.
Kd3 Rd4+ 28. Ke2 Rxb4 29. Kf2 Bd4+ 30. Kg3 Be5+ 31. Kf2 Bd4+ 32. Kg3 Nf5+ 33.
Kg4 Ng7 34. g3 Rxa4 35. Bd3 Bc3+ 36. Kh3 h5 37. Rf1 Ra1 38. Rf2 Re1 39. f4 g4+
40. Kg2 Bd4 0-1