[Event "Pohár města Říčany 2018"]
[Site "Městské kulturní středisko"]
[Date "2019.08.25"]
[Round "2.11"]
[White "Horyna, Josef"]
[Black "Krizek, Krystof"]
[Result "0-1"]
[ECO "A00"]
[WhiteElo "1763"]
[BlackElo "1984"]
[PlyCount "102"]
[EventDate "2019.08.24"]

1. d4 d5 2. Bf4 Nf6 3. e3 c5 4. c3 Nc6 5. Nd2 Bf5 6. Be2 Qb6 7. Qb3 c4 8. Qxb6
axb6 9. a3 e6 10. Ngf3 Be7 11. Ne5 b5 12. O-O O-O 13. g4 Bg6 14. f3 Nxe5 15.
Bxe5 Nd7 16. Bg3 Nb6 17. h4 Bd3 18. Bxd3 cxd3 19. Rad1 Nc4 20. Nxc4 bxc4 21.
Rd2 Ra6 22. Kg2 Rfa8 23. f4 b5 24. h5 h6 25. Kh3 Bxa3 26. bxa3 Rxa3 27. Rc1 Ra2
28. Be1 Ra1 29. Rdd1 Rxc1 30. Rxc1 Ra2 31. Rd1 Kf8 32. Kg3 Ke7 33. Kf3 Re2 34.
Bd2 Kd6 35. Be1 b4 36. cxb4 Rxe1 37. Rxe1 c3 38. e4 d2 39. e5+ Kc6 40. Ke2
dxe1=Q+ 41. Kxe1 Kb5 42. f5 Kxb4 43. Kd1 Kc4 44. f6 gxf6 45. exf6 Kxd4 46. g5
Ke5 47. gxh6 Kxf6 48. Kc2 d4 49. Kd3 e5 50. Kc2 e4 51. Kd1 e3 0-1