[Event "Pohár města Říčany 2020"]
[Site "Městské kulturní středisko U labutě"]
[Date "2020.08.23"]
[Round "3.4"]
[White "Reljic, Michael"]
[Black "Skypala, Ondrej"]
[Result "1-0"]
[WhiteElo "1957"]
[BlackElo "2129"]
[ECO "C01"]
[PlyCount "0"]
[EventDate "2020.08.22"]
[Opening "French: exchange variation"]

1. e4 e6 2. d4 d5 3. exd5 exd5 4. Bd3 Bd6 5. c3 Ne7 6. Nf3 Bg4 7. Nbd2 Nbc6
8. Nf1 Qd7 9. Bg5 f6 10. Bh4 O-O-O 11. Ne3 Ng6 12. Bg3 Nf4 13. Bxf4 Bxf4
14. Nxg4 Qxg4 15. O-O Kb8 16. b4 h5 17. a4 a5 18. Bb5 Qe6 19. Qb3 h4 20. Rab1
axb4 21. Bxc6 Qxc6 22. Qxb4 g5 23. Ne1 Bd2 24. Rb3 Bxe1 25. Rxe1 Rhe8 26. Reb1
Kc8 27. Qxb7+ Qxb7 28. Rxb7 Re1+ 29. Rxe1 Kxb7 30. Re6 Rd6 31. Rxd6 cxd6 32. Kf1
Ka6 33. Ke2 Ka5 34. Kd3 Kxa4 35. c4 Kb4 36. cxd5 f5 37. f3 g4 38. Ke3 Kc4
39. Kf4 gxf3 40. gxf3 Kxd5 41. Kxf5 Kxd4 42. f4 Ke3 43. Kg5 d5 44. f5 d4 45. f6
d3 46. f7 d2 47. f8=Q d1=Q 48. Qf4+ 1-0