[Event "Pohár města Říčany 2018"]
[Site "Městské kulturní středisko U labutě"]
[Date "2019.08.31"]
[Round "9.18"]
[White "Voracek, Zdenek"]
[Black "Lhotsky, Frantisek"]
[Result "0-1"]
[WhiteElo "1938"]
[BlackElo "1865"]
[ECO "D45"]
[PlyCount "0"]
[EventDate "2019.08.24"]
[Opening "QGD: semi-Slav (5...Nd7)"]

1. d4 d5 2. c4 c6 3. Nf3 Nf6 4. Nc3 e6 5. e3 Nbd7 6. b3 Bd6 7. Be2 O-O 8. O-O
b6 9. Bb2 Bb7 10. Rc1 Qe7 11. Qc2 Rac8 12. e4 dxe4 13. Nxe4 Nxe4 14. Qxe4 Nf6
15. Qc2 c5 16. Rcd1 cxd4 17. Bxd4 e5 18. Bb2 Ne4 19. Nd2 Ng5 20. Qc3 f5 21. Bf3
e4 22. Bh5 Rcd8 23. a3 Ne6 24. Rfe1 Qh4 25. Qh3 Qxh3 26. gxh3 Nf4 27. Be2 Nxh3+
28. Kf1 Bc5 29. f3 Bf2 30. fxe4 fxe4 31. Bg4 Bxe1+ 32. Kxe1 Nf4 33. Bc3 Rd3
34. Rc1 Ng2+ 35. Ke2 Re3+ 36. Kd1 Re1+ 37. Kc2 Ne3+ 0-1