[Event "Pohár města Říčany 2020"]
[Site "Městské kulturní středisko U labutě"]
[Date "2020.08.22"]
[Round "1.12"]
[White "Rut, Vojtech"]
[Black "Kacirek, Pavel"]
[Result "1-0"]
[WhiteElo "2043"]
[BlackElo "1778"]
[ECO "D00"]
[PlyCount "0"]
[EventDate "2020.08.22"]
[Opening "Queen's pawn: Mason variation"]

1. d4 d5 2. Bf4 c6 3. e3 e6 4. Nd2 f5 5. Ngf3 Nf6 6. Ne5 Be7 7. Bd3 b6 8. h3
O-O 9. g4 Ne4 10. gxf5 exf5 11. Rg1 Bh4 12. Rg2 Bxf2+ 13. Rxf2 Nxf2 14. Kxf2
Qh4+ 15. Kg2 Nd7 16. Nxc6 Bb7 17. Nf3 Qf6 18. Nce5 Nxe5 19. Bxe5 Qe6 20. Kh2 h6
21. Qg1 Rf7 22. h4 Rd8 23. Qg3 Bc8 24. Rg1 Rdd7 25. Qf4 Rde7 26. h5 Kh7 27. Rg6
Qd7 28. Nh4 Re8 29. Bxf5 Rxf5 30. Nxf5 Rg8 1-0