[Event "Pohár města Říčany 2020"]
[Site "Městské kulturní středisko U labutě"]
[Date "2020.08.24"]
[Round "4.16"]
[White "Pejrimovska, Viola Ruby"]
[Black "Cermak, Jan"]
[Result "1-0"]
[WhiteElo "1569"]
[BlackElo "1971"]
[ECO "C47"]
[PlyCount "0"]
[EventDate "2020.08.22"]
[Opening "Four knights: Belgrade gambit"]

1. e4 e5 2. Nf3 Nf6 3. Nc3 Nc6 4. d4 exd4 5. Nd5 Nxd5 6. exd5 Bb4+ 7. Bd2 Qe7+
8. Be2 d3 9. cxd3 Ne5 10. O-O Bd6 11. Nxe5 Qxe5 12. g3 O-O 13. Bc3 Qxd5 14. Bf3
Qg5 15. Re1 c6 16. Re4 b5 17. Rd4 Bc7 18. Be4 d5 19. f4 Bxf4 *
1-0
