[Event "Pohár města Říčany 2020"]
[Site "Městské kulturní středisko U labutě"]
[Date "2020.08.24"]
[Round "4.25"]
[White "Pecka, Jan"]
[Black "Kalvach, Ladislav"]
[Result "1-0"]
[WhiteElo "1610"]
[BlackElo "1761"]
[ECO "B28"]
[PlyCount "0"]
[EventDate "2020.08.22"]
[Opening "Sicilian: O'Kelly variation"]

1. e4 c5 2. Nf3 a6 3. c3 Nf6 4. Bd3 Nc6 5. O-O e5 6. Bc2 d5 7. exd5 Qxd5 8. d3
Bg4 9. Bb3 Bxf3 10. Bxd5 Bxd1 11. Bxc6+ bxc6 12. Rxd1 O-O-O 13. Kf1 c4 14. Ke2
cxd3+ 15. Rxd3 Bc5 16. Rxd8+ Rxd8 17. Nd2 e4 18. Nb3 Bd6 19. Bg5 Be5 20. Bxf6
gxf6 21. Na5 f5 22. Nxc6 Bxh2 23. Nb4 Rd6 24. Nc2 Bf4 25. Ne3 Bxe3 26. Kxe3 Rd3+
27. Ke2 Rd6 28. Rh1 h6 29. Rh5 f4 30. Rf5 Rg6 31. Rxf4 Rxg2 32. Rh4 f5 33. Rxh6
Kb7 34. Rf6 Rg5 * 1-0