[Event "Pohár města Říčany 2018"]
[Site "Městské kulturní středisko U labutě"]
[Date "2019.08.29"]
[Round "7.10"]
[White "Hrbek, Tomas"]
[Black "Rut, Vojtech"]
[Result "0-1"]
[WhiteElo "1744"]
[BlackElo "2115"]
[ECO "A85/11"]
[PlyCount "0"]
[EventDate "2019.08.24"]
[Opening "Dutch (c4/Nc3...e6)"]

1. d4 e6 2. c4 f5 3. Nc3 Nf6 4. Nf3 Bb4 5. Bd2 O-O 6. e3 b6 7. Bd3 Bb7 8. O-O
Nc6 9. a3 Bxc3 10. Bxc3 a5 11. b4 Qe7 12. Qb3 Ne4 13. Bxe4 fxe4 14. Nd2 Qh4
15. d5 a4 16. Qc2 exd5 17. cxd5 Ne7 18. Qxe4 Qxe4 19. Nxe4 Nxd5 20. Rfe1 Rae8
21. f3 Rxe4 22. fxe4 Nxc3 23. Rac1 Nb5 24. e5 Re8 25. Red1 Bc6 26. Rd3 Rxe5
27. g3 Nd6 28. h3 Rf5 29. Rf1 Rxf1+ 30. Kxf1 Bb5 0-1