[Event "Pohár města Říčany 2018"]
[Site "Městské kulturní středisko U labutě"]
[Date "2019.08.29"]
[Round "7.17"]
[White "Maly, Filip"]
[Black "Lhotsky, Frantisek"]
[Result "1-0"]
[WhiteElo "1941"]
[BlackElo "1865"]
[ECO "C90"]
[PlyCount "0"]
[EventDate "2019.08.24"]
[Opening "Ruy Lopez: closed, Pilnik variation"]

1. e4 e5 2. Nf3 Nc6 3. Bb5 a6 4. Ba4 Nf6 5. O-O Be7 6. Re1 b5 7. Bb3 d6 8. c3
O-O 9. d3 Na5 10. Bc2 c5 11. Nbd2 h6 12. a4 Be6 13. Nf1 Rc8 14. axb5 axb5
15. Ne3 Re8 16. h3 Bf8 17. d4 cxd4 18. cxd4 exd4 19. Nxd4 Bd7 20. Nef5 Nc4
21. b3 Ne5 22. Bf4 Qb6 23. Be3 Qb7 24. Bb1 Bxf5 25. Nxf5 Nxe4 26. Ra7 Qc6
27. Nd4 Qd5 28. Nxb5 Qxb5 29. Bxe4 Re7 30. Rxe7 Bxe7 31. f4 Nd7 32. Qg4 Qb4
33. Bf2 Rc7 34. Bh7+ Kxh7 35. Rxe7 Qb5 36. Rxf7 Rc1+ 37. Kh2 1-0