[Event "Pohár města Říčany 2018"]
[Site "Městské kulturní středisko U labutě"]
[Date "2019.08.29"]
[Round "7.23"]
[White "Stojkovic, Andreja"]
[Black "Horyna, Josef"]
[Result "1-0"]
[WhiteElo "1968"]
[BlackElo "1763"]
[ECO "C02"]
[PlyCount "0"]
[EventDate "2019.08.24"]
[Opening "French: advance, Euwe variation"]

1. e4 e6 2. d4 d5 3. e5 c5 4. c3 Nc6 5. Nf3 Bd7 6. Be2 cxd4 7. cxd4 Be7 8. O-O
Qb6 9. Nc3 Rc8 10. a3 Na5 11. Bd3 Nb3 12. Rb1 Nxc1 13. Rxc1 a6 14. g3 Nh6
15. Nh4 O-O 16. Kg2 Nf5 17. Re1 1-0