[Event "Pohár města Říčany 2018"]
[Site "Městské kulturní středisko U labutě"]
[Date "2019.08.29"]
[Round "7.24"]
[White "Kuhnmund, Ivan"]
[Black "Cervenka, Petr"]
[Result "1/2-1/2"]
[WhiteElo "1631"]
[BlackElo "1850"]
[ECO "A00"]
[PlyCount "0"]
[EventDate "2019.08.24"]

1. e4 e6 2. Nc3 d5 3. g3 c5 4. Bg2 d4 5. Nce2 Nc6 6. f4 Nf6 7. Nf3 Be7 8. e5
Nd5 9. c4 d3 10. cxd5 Nb4 11. d6 dxe2 12. Qb3 b6 13. a3 Nd5 14. dxe7 Qxe7
15. Qb5+ Bd7 16. Qxe2 a6 17. b3 h5 18. O-O Bb5 19. d3 O-O-O 20. Rd1 Nc3 21. Qc2
Nxd1 22. Qxd1 Rxd3 23. Qe1 Rhd8 24. Be3 Rxb3 25. Nd2 Rbd3 26. a4 Be8 27. Nc4 Qc7
28. a5 b5 29. Nd6+ R8xd6 30. exd6 Qxd6 31. Bf2 Bc6 32. Bxc6 Qxc6 33. Rd1 Rxd1
34. Qxd1 g6 35. Qd2 c4 36. Bb6 Qd5 37. Qc3 Kd7 38. Kf2 Kc6 39. Ke3 Qg2 40. Qd4 1/2-1/2