[Event "Pohár města Říčany 2018"]
[Site "Městské kulturní středisko U labutě"]
[Date "2019.08.29"]
[Round "7.28"]
[White "Dome, Michal"]
[Black "Vit, Zdenek"]
[Result "1/2-1/2"]
[BlackElo "1747"]
[ECO "E60"]
[EventDate "2019.08.24"]
[PlyCount "0"]
[WhiteElo "1799"]

1. d4 Nf6 2. c4 g6 3. Nf3 Bg7 4. e3 O-O 5. Be2 c6 6. O-O d5 7. Nbd2 Nbd7 8. b3
c5 9. Bb2 b6 10. Ne5 Bb7 11. Rc1 Nxe5 12. dxe5 Nd7 13. f4 e6 14. Nf3 Qe7 15.
Qc2 Rad8 16. Bd3 Nb8 17. cxd5 Bxd5 18. Ng5 Bb7 19. Ne4 Bxe4 20. Bxe4 f6 21.
exf6 Bxf6 22. Bxf6 Qxf6 23. Qc4 Kg7 24. a4 Rf7 25. Rfd1 Rfd7 26. Qc2 e5 27.
Rxd7+ Rxd7 28. f5 g5 29. Rd1 Qe7 30. f6+ Qxf6 31. Rxd7+ Nxd7 32. Bxh7 Nf8 33.
Be4 Qd6 34. Qe2 Nd7 35. Qg4 Nf6 36. Qxg5+ Kf8 37. Bf3 Kf7 38. h4 Qd3 39. Qxe5
Qxb3 40. Bh5+ Nxh5 41. Qxh5+ Kg7 42. Qg5+ Kh7 43. Qf5+ Kg7 44. Qe5+ Kh7 45.
Qe4+ Kg7 46. Qe7+ Kg6 47. Qg5+ Kh7 48. g4 c4 49. Qe7+ Kg8 50. Qe8+ Kg7 51. Qe7+
Kg8 52. Qe8+ Kg7  1/2-1/2