[Event "Pohár města Říčany 2018"]
[Site "Městské kulturní středisko U labutě"]
[Date "2019.08.29"]
[Round "7.29"]
[White "Paulovic, Milan"]
[Black "Day, Tobias"]
[Result "1/2-1/2"]
[WhiteElo "1788"]
[BlackElo "1761"]
[ECO "A21"]
[PlyCount "0"]
[EventDate "2019.08.24"]
[Opening "English closed (with ...f5)"]

1. c4 f5 2. Nc3 Nf6 3. g3 e5 4. Bg2 d6 5. e4 Nc6 6. Nge2 g6 7. d4 exd4 8. Nxd4
fxe4 9. Bg5 Be7 10. O-O 1/2-1/2