[Event "Pohár města Říčany 2018"]
[Site "Městské kulturní středisko U labutě"]
[Date "2019.08.29"]
[Round "7.3"]
[White "Vojta, Tomas"]
[Black "Dunder, Ondrej"]
[Result "1-0"]
[WhiteElo "2363"]
[BlackElo "1717"]
[ECO "B01"]
[PlyCount "0"]
[EventDate "2019.08.24"]
[Opening "Scandinavian (centre counter) defence"]

1. e4 d5 2. exd5 Qxd5 3. Nc3 Qa5 4. d4 c6 5. Nf3 Nf6 6. Bd2 Qb6 7. Bc4 Bf5
8. Qe2 Qxb2 9. Rb1 Qxc2 10. Rxb7 e6 11. O-O Ne4 12. Nb5 cxb5 13. Bxb5+ Nc6
14. Rc1 Qxc1+ 15. Bxc1 Bd6 16. Bxc6+ Kf8 17. Bxe4 1-0