[Event "Pohár města Říčany 2018"]
[Site "Městské kulturní středisko U labutě"]
[Date "2019.08.29"]
[Round "7.30"]
[White "Rerabek, Jaroslav"]
[Black "Kalvach, Ladislav"]
[Result "0-1"]
[WhiteElo "1733"]
[BlackElo "1784"]
[ECO "A45"]
[PlyCount "0"]
[EventDate "2019.08.24"]
[Opening "Trompovsky attack (Ruth, Opovcensky opening)"]

1. d4 Nf6 2. Bg5 Ne4 3. Bf4 d5 4. f3 Nf6 5. e3 e6 6. a3 Nbd7 7. c3 c5 8. Bd3
Nh5 9. Bg3 Nxg3 10. hxg3 Qg5 11. Kf2 h5 12. f4 Qh6 13. Nf3 Be7 14. g4 g6 15. g5
Qg7 16. Nh4 a6 17. a4 c4 18. Bc2 b6 19. Nd2 Bb7 20. Qe2 Rc8 21. e4 dxe4 22. Bxe4
Bxe4 23. Qxe4 O-O 24. Ndf3 Rfd8 25. f5 gxf5 26. Nxf5 exf5 27. Qxe7 f6 28. Qe6+
Qf7 29. Qxf5 fxg5 30. Qxg5+ Kf8 31. Rxh5 Nf6 32. Rh4 Rd5 33. Qh6+ Ke8 34. Re1+
Kd8 35. Rf4 Rc6 36. Ne5 Rxe5 37. Qh8+ Re8 38. Rxe8+ Qxe8 39. Qh4 Qe7 40. Kf3 Re6
41. Kg3 Ne4+ 42. Rxe4 Rxe4 0-1