[Event "Pohár města Říčany 2020"]
[Site "Městské kulturní středisko U labutě"]
[Date "2020.08.24"]
[Round "4.26"]
[White "Popovsky, Ondrej"]
[Black "Konvalinka, Vladislav"]
[Result "1-0"]
[WhiteElo "1766"]
[BlackElo "1731"]
[ECO "D45"]
[PlyCount "0"]
[EventDate "2020.08.22"]
[Opening "QGD: semi-Slav (5...Nd7)"]

1. d4 d5 2. c4 c6 3. Nc3 Nf6 4. Nf3 e6 5. e3 Nbd7 6. Bd2 Bd6 7. Bd3 O-O 8. O-O
e5 9. cxd5 cxd5 10. dxe5 Nxe5 11. Be2 Nc4 12. Nxd5 Bxh2+ 13. Nxh2 Qxd5 14. Bc3
Qxd1 15. Rfxd1 Be6 16. Bf3 Nd7 17. b3 Nce5 18. Bxb7 Rab8 19. Be4 f5 20. Bd5 Kf7
21. f4 Ng6 22. Bxe6+ Kxe6 23. Bxg7 Rg8 24. Bd4 Nh4 25. Rd2 Nf6 26. Bxf6 Kxf6
27. Rc1 Rbe8 28. Rc6+ Kg7 29. g3 Rxe3 30. Kf2 Re4 31. gxh4 Rxf4+ 32. Nf3 Kh8
33. Rc4 Rfg4 34. Ng5 f4 35. Rd7 Rxh4 36. Nf7+ Kg7 37. Rxa7 Kf6 38. Rc6+ Kf5 1-0