[Event "Pohár města Říčany 2018"]
[Site "Městské kulturní středisko U labutě"]
[Date "2019.08.30"]
[Round "8.6"]
[White "Novotny, Martin"]
[Black "Vlkova, Anezka"]
[Result "1-0"]
[WhiteElo "2178"]
[BlackElo "1973"]
[ECO "E10"]
[PlyCount "0"]
[EventDate "2019.08.24"]
[Opening "Queen's pawn game"]

1. d4 e6 2. c4 Nf6 3. Nf3 d5 4. Nc3 dxc4 5. e3 a6 6. a4 b6 7. Bxc4 Bb7 8. O-O
Bb4 9. Qe2 c5 10. Rd1 Nbd7 11. Na2 Ba5 12. b3 O-O 13. Ba3 Qb8 14. Rac1 Nd5
15. e4 Nf4 16. Qe3 Re8 17. dxc5 Nxc5 18. b4 Nxe4 19. bxa5 b5 20. Bf1 1-0