[Event "Pohár města Říčany 2018"]
[Site "Městské kulturní středisko U labutě"]
[Date "2019.08.27"]
[Round "5.13"]
[White "Cervenka, Petr"]
[Black "Groh, Jiri"]
[Result "0-1"]
[WhiteElo "1850"]
[BlackElo "2001"]
[ECO "B25"]
[PlyCount "0"]
[EventDate "2019.08.24"]
[Opening "Sicilian: Grand Prix attack"]

1. e4 c5 2. Nc3 Nc6 3. g3 g6 4. Bg2 Bg7 5. d3 d6 6. f4 e6 7. Nf3 Nge7 8. Be3 b5
9. e5 b4 10. Ne4 dxe5 11. Bxc5 exf4 12. Nd6+ Kf8 13. O-O Bxb2 14. Ng5 Qa5 15. d4
Bxa1 16. Bxc6 Nxc6 17. Qxa1 Kg7 18. Ngxf7 e5 19. gxf4 Rf8 20. fxe5 Be6 21. Qc1
Qc7 22. Nb5 Qd7 23. Bxf8+ Rxf8 24. Ng5 Nxd4 25. Rf6 Ne2+ 0-1