[Event "Pohár města Říčany 2018"]
[Site "Městské kulturní středisko U labutě"]
[Date "2019.08.27"]
[Round "5.15"]
[White "Holub, Milan"]
[Black "Reljic, Michael"]
[Result "0-1"]
[WhiteElo "1988"]
[BlackElo "1890"]
[ECO "D02"]
[PlyCount "0"]
[EventDate "2019.08.24"]
[Opening "Queen's bishop game"]

1. d4 d5 2. Nf3 e6 3. Bf4 Bd6 4. Bg3 f5 5. e3 Nf6 6. Nbd2 Nbd7 7. c4 Bxg3
8. hxg3 c6 9. Bd3 Ne4 10. c5 Qf6 11. Nb3 b6 12. Qe2 Bb7 13. a4 O-O 14. a5 bxc5
15. a6 Bc8 16. dxc5 Rb8 17. Nfd4 e5 18. Nxf5 Qxf5 19. f3 Qg5 0-1