[Event "Pohár města Říčany 2018"]
[Site "Městské kulturní středisko U labutě"]
[Date "2019.08.27"]
[Round "5.16"]
[White "Krizek, Krystof"]
[Black "Stepanek, Svatopluk"]
[Result "0-1"]
[WhiteElo "1984"]
[BlackElo "1822"]
[ECO "C50"]
[PlyCount "0"]
[EventDate "2019.08.24"]
[Opening "Hungarian defence"]

1. e4 e5 2. Nf3 Nc6 3. Bc4 Be7 4. O-O Nf6 5. d3 a6 6. c3 d5 7. exd5 Nxd5 8. Re1
Nb6 9. Nbd2 Nxc4 10. Nxc4 f6 11. d4 exd4 12. cxd4 O-O 13. Ne3 Kh8 14. b3 Bd6
15. Bb2 Ne7 16. Qd3 Bd7 17. a4 Be8 18. Nc4 Bb4 19. Bc3 Bg6 20. Qd2 Bxc3 21. Qxc3
Nd5 22. Qb2 Nb4 23. Red1 Qd7 24. Qd2 Nd5 25. Ne3 Rfe8 26. Rac1 Be4 27. Ne1 Qf7
28. Nf1 Re7 29. Ng3 Bg6 30. Nf3 h6 31. Nh4 Bh7 32. Nhf5 Re6 33. Rc5 Qd7 34. Rdc1
c6 35. Ne3 Nxe3 36. fxe3 Rae8 37. Nf1 Be4 38. b4 Bd5 39. Qb2 f5 40. Qf2 Rg6
41. Ng3 h5 42. Kf1 f4 43. Rxd5 Qxd5 44. exf4 h4 45. Ne2 h3 46. g3 Rge6 47. Ng1
Qh1 48. g4 Re3 49. b5 axb5 50. axb5 Qe4 51. Rd1 Qd5 52. Qc2 Qxb5+ 53. Kf2 Qd5
54. Kf1 Rf3+ 55. Nxf3 Qxf3+ 56. Kg1 Re2 0-1