[Event "Pohár města Říčany 2018"]
[Site "Městské kulturní středisko U labutě"]
[Date "2019.08.27"]
[Round "5.18"]
[White "Vlkova, Anezka"]
[Black "Nemecek, Pavel"]
[Result "1/2-1/2"]
[WhiteElo "1973"]
[BlackElo "1801"]
[ECO "C11"]
[PlyCount "0"]
[EventDate "2019.08.24"]
[Opening "French: Steinitz, Boleslavsky variation"]

1. e4 e6 2. d4 d5 3. Nc3 Nf6 4. e5 Nfd7 5. f4 c5 6. Nf3 Nc6 7. Be3 Be7 8. Qd2
a6 9. Bd3 Qb6 10. Na4 Qb4 11. Qxb4 cxb4 12. b3 O-O 13. O-O f6 14. f5 b5 15. fxe6
bxa4 16. exd7 Bxd7 17. bxa4 Na5 18. exf6 Bxf6 19. Rab1 Be7 20. Bd2 Rfb8 21. a3
Nc6 22. axb4 Nxb4 23. Bxb4 Bxb4 24. c4 Bxa4 25. Ra1 Bb3 26. cxd5 Bxd5 27. Ng5
Bd2 28. Rf5 Bc3 29. Ra4 Bb3 30. Bc4+ Bxc4 31. Rxc4 Rc8 32. Ra4 Bd2 33. Ne6 Rc1+
34. Kf2 a5 35. g4 g6 36. Rb5 Rac8 37. Rc5 R1xc5 38. Nxc5 Bb4 39. Nb7 Rc4 40. Kf3
Rxd4 41. Nxa5 Bc5 42. Ra2 Bd6 43. Rg2 g5 44. Nc6 Rc4 45. Nd8 Be7 46. Rd2 Rf4+
47. Kg3 Ra4 48. Rd3 h6 49. Nc6 Bf6 50. h3 Rc4 1/2-1/2