[Event "Pohár města Říčany 2018"]
[Site "Městské kulturní středisko U labutě"]
[Date "2019.08.27"]
[Round "5.25"]
[White "Salac, Jiri"]
[Black "Rerabek, Jaroslav"]
[Result "1/2-1/2"]
[WhiteElo "1881"]
[BlackElo "1733"]
[ECO "A45"]
[PlyCount "0"]
[EventDate "2019.08.24"]
[Opening "Queen's pawn game"]

1. d4 Nf6 2. Nc3 d5 3. g3 c6 4. Bg2 Bf5 5. Nf3 h6 6. Ne5 e6 7. O-O Bd6 8. Nd3
Nbd7 9. Re1 Qc7 10. e4 dxe4 11. Nxe4 Nxe4 12. Bxe4 Bxe4 13. Rxe4 Nf6 14. Re1 Qb6
15. Be3 Nd5 16. Qe2 Nxe3 17. Qxe3 O-O 18. c4 Be7 19. d5 Qxe3 20. Rxe3 cxd5
21. cxd5 Bg5 22. f4 Bf6 23. Ne5 exd5 24. Rd1 Rad8 25. Red3 d4 26. Rxd4 Rxd4
27. Rxd4 Rd8 1/2-1/2
