[Event "Pohár města Říčany 2018"]
[Site "Městské kulturní středisko U labutě"]
[Date "2019.08.27"]
[Round "5.32"]
[White "Konvalinka, Vladislav"]
[Black "Paulovic, Milan"]
[Result "1-0"]
[BlackElo "1788"]
[ECO "A52"]
[EventDate "2019.08.24"]
[PlyCount "0"]
[WhiteElo "1657"]

1. d4 Nf6 2. c4 e5 3. dxe5 Ng4 4. e3 Nxe5 5. Nh3 Bb4+ 6. Bd2 Qe7 7. Nc3 c6 8.
Nf4 O-O 9. Be2 d6 10. O-O Bf5 11. Ncd5 cxd5 12. Nxd5 Qd8 13. Bxb4 Nbc6 14. Bc3
Be4 15. f3 Bxd5 16. Qxd5 Qb6 17. Qd2 Rfe8 18. Kh1 Re6 19. e4 Rae8 20. Rae1 Rh6
21. f4 Nd7 22. Bd3 Ree6 23. f5 Re8 24. Rf3 Nde5 25. Rg3 Rh4 26. Qg5 Rg4 27.
Rxg4 g6 28. Qh6 Nd4 29. Bxd4 Qxd4 30. f6 Nxg4 31. Qg7#  1-0