[Event "Pohár města Říčany 2018"]
[Site "Městské kulturní středisko U labutě"]
[Date "2019.08.31"]
[Round "9.10"]
[White "Hrbek, Tomas"]
[Black "Vojta, Jakub"]
[Result "0-1"]
[WhiteElo "1744"]
[BlackElo "2256"]
[ECO "D82"]
[PlyCount "0"]
[EventDate "2019.08.24"]
[Opening "Gruenfeld: 4.Bf4"]

1. d4 Nf6 2. c4 g6 3. Nc3 d5 4. Bf4 Bg7 5. e3 c6 6. Nf3 O-O 7. b4 a5 8. b5 Nh5
9. Bxb8 Rxb8 10. Qb3 Be6 11. Ng5 Bf5 12. cxd5 e5 13. Nxf7 Rxf7 14. dxc6 Kf8
15. Bc4 Re7 16. Nd5 exd4 17. Qa3 bxc6 18. bxc6 Rb4 19. Nxb4 axb4 20. Qxb4 dxe3
21. Rd1 Qc7 22. O-O Be5 23. g3 Bh3 24. fxe3+ Kg7 25. Rf4 Nxf4 26. exf4 Bf6
27. Bd5 Qa7+ 28. Kh1 Qf2 29. Qd2 Qxd2 30. Rxd2 Re1# 0-1