[Event "Pohár města Říčany 2018"]
[Site "Městské kulturní středisko"]
[Date "2019.08.25"]
[Round "2.10"]
[White "Holub, Milan"]
[Black "Hrbek, Tomas"]
[Result "1/2-1/2"]
[ECO "A00"]
[WhiteElo "1988"]
[BlackElo "1744"]
[PlyCount "47"]
[EventDate "2019.08.24"]

1. d4 d5 2. Nf3 Nf6 3. Bf4 Bf5 4. e3 e6 5. Nbd2 Bd6 6. Ne5 Nbd7 7. Ndf3 Nh5 8.
Bd3 Bxd3 9. Qxd3 Nxf4 10. exf4 c6 11. O-O Nxe5 12. dxe5 Be7 13. f5 exf5 14.
Qxf5 Qd7 15. Qh5 g6 16. Qh6 Qf5 17. c3 O-O-O 18. Qe3 Kb8 19. Nd4 Qg5 20. f4 Qh4
21. b4 Ka8 22. Rab1 Rc8 23. Rfd1 Bd8 24. Qf3 1/2-1/2