[Event "Pohár města Říčany 2020"]
[Site "Městské kulturní středisko U labutě"]
[Date "2020.08.22"]
[Round "1.18"]
[White "Bartos, Vaclav"]
[Black "Kubice, Jakub"]
[Result "1-0"]
[WhiteElo "1976"]
[BlackElo "1724"]
[ECO "D10"]
[PlyCount "0"]
[EventDate "2020.08.22"]
[Opening "QGD Slav defence: exchange variation"]

1. d4 d5 2. c4 c6 3. cxd5 cxd5 4. Nc3 Nf6 5. Bf4 Qb6 6. Rc1 Nc6 7. e3 Bf5
8. Nb5 Rc8 9. Qa4 a6 10. Nc7+ Rxc7 11. Bxc7 Qxc7 12. Bxa6 Bd7 13. Bb5 e6
14. Qa8+ Ke7 15. Bxc6 Bxc6 16. Nf3 Nd7 17. O-O g6 18. Rc2 Bg7 19. Qa3+ Qd6
20. Qd3 Ra8 21. b3 Ra3 22. h4 h5 23. Ng5 Qb4 24. Rfc1 Qa5 25. Qe2 Bf6 26. f4 Bb5
27. Qf2 Qa6 28. Nf3 Kf8 29. Rc8+ Kg7 30. Kh2 Ne5 31. fxe5 Bd3 32. R1c5 Qb6
33. Rb8 Bc7 34. Qf6 1-0