[Event "Pohár města Říčany 2018"]
[Site "Městské kulturní středisko"]
[Date "2019.08.25"]
[Round "2.28"]
[White "Reljic, Michael"]
[Black "Otrubova, Kristyna"]
[Result "1-0"]
[ECO "A00"]
[WhiteElo "1890"]
[BlackElo "1712"]
[PlyCount "69"]
[EventDate "2019.08.24"]

1. e4 c5 2. Nf3 d6 3. c3 Nf6 4. Be2 Nc6 5. d3 e6 6. O-O Be7 7. b3 O-O 8. Nbd2
e5 9. h3 d5 10. exd5 Nxd5 11. Qc2 Nf4 12. Nc4 Ng6 13. Bb2 Qc7 14. d4 exd4 15.
cxd4 cxd4 16. Nxd4 Nxd4 17. Bxd4 Bd7 18. Qb2 f6 19. Rac1 Bc6 20. Ne3 Nf4 21. b4
Nxe2+ 22. Qxe2 Qf4 23. Qc4+ Kh8 24. b5 Be4 25. f3 Bg6 26. Nd5 Qd6 27. Nxe7 Qxe7
28. Bc5 Qe5 29. Bxf8 Qe3+ 30. Kh1 Rxf8 31. Qc5 Qxc5 32. Rxc5 Re8 33. Rfc1 Kg8
34. Rc8 a6 35. b6 1-0