[Event "Pohár města Říčany 2018"]
[Site "Městské kulturní středisko"]
[Date "2019.08.24"]
[Round "1.33"]
[White "Smolik, Jachym"]
[Black "Konvalinka, Vladislav"]
[Result "1-0"]
[ECO "A00"]
[WhiteElo "1891"]
[BlackElo "1657"]
[PlyCount "56"]
[EventDate "2019.08.24"]

1. d4 d5 2. c4 c6 3. cxd5 cxd5 4. Nc3 Nf6 5. Bf4 Nc6 6. e3 Bf5 7. Qb3 Na5 8.
Qa4+ Bd7 9. Qc2 Rc8 10. Bd3 e6 11. a3 Be7 12. Nf3 Nc6 13. h3 h6 14. g4 Qa5 15.
Rc1 g5 16. Bg3 a6 17. O-O Na7 18. Ne5 Bb5 19. Bxb5+ Nxb5 20. b4 Qd8 21. Qa4 O-O
22. Nxb5 axb5 23. Qxb5 Rxc1 24. Rxc1 Qa8 25. Rc7 Bd6 26. Rxb7 Qxa3 27. Nd7 Bxg3
28. Nxf6+ Kg7 1-0