[Event "Pohár města Říčany 2018"]
[Site "Městské kulturní středisko U labutě"]
[Date "2019.08.30"]
[Round "8.14"]
[White "Otruba, Marek"]
[Black "Tejkal, Jiri"]
[Result "0-1"]
[WhiteElo "2133"]
[BlackElo "1881"]
[ECO "E92"]
[PlyCount "0"]
[EventDate "2019.08.24"]
[Opening "King's Indian: Petrosian system, Stein variation"]

1. d4 Nf6 2. c4 g6 3. Nc3 Bg7 4. e4 d6 5. Nf3 O-O 6. Be2 e5 7. d5 a5 8. Bg5 h6
9. Be3 Na6 10. Nd2 Nd7 11. a3 f5 12. f3 Nf6 13. Rb1 Bd7 14. b4 axb4 15. axb4 b6
16. O-O f4 17. Bf2 g5 18. c5 bxc5 19. Bxa6 Rxa6 20. bxc5 g4 21. Nc4 gxf3
22. gxf3 Bh3 23. Re1 Ne8 24. Kh1 Bf6 25. Qe2 Ra8 26. cxd6 cxd6 27. Nb5 Rb8
28. Na7 Rxb1 29. Rxb1 Rf7 30. Nc6 Qa8 31. Nxd6 Rg7 32. Ba7 Rxa7 33. Nxe8 Ra1
34. Nxf6+ Kf7 35. Qd1 Qa2 36. Nd8+ Kxf6 37. Rb6+ Ke7 38. Nc6+ Kf8 39. Rb8+ Kf7
40. Rb7+ Kf6 0-1