[Event "Pohár města Říčany 2018"]
[Site "Městské kulturní středisko U labutě"]
[Date "2019.08.30"]
[Round "8.15"]
[White "Hejsek, Lukas"]
[Black "Krizek, Krystof"]
[Result "1/2-1/2"]
[WhiteElo "1948"]
[BlackElo "1984"]
[ECO "D02"]
[PlyCount "0"]
[EventDate "2019.08.24"]
[Opening "Queen's pawn game"]

1. d4 d5 2. Nf3 Nf6 3. g3 e6 4. Bg2 b5 5. O-O Bb7 6. b3 Be7 7. c4 bxc4 8. bxc4
dxc4 9. Na3 Nbd7 10. Nxc4 c5 11. Qa4 O-O 12. Na5 Bd5 13. Ba3 cxd4 14. Bxe7 Qxe7
15. Qxd4 Rfd8 16. Rfc1 Nb6 17. Qf4 Rdc8 18. Ne5 Bxg2 19. Kxg2 Nfd5 20. Qf3 Rxc1
21. Rxc1 Rf8 22. Nac6 Qg5 1/2-1/2