[Event "Pohár města Říčany 2018"]
[Site "Městské kulturní středisko U labutě"]
[Date "2019.08.30"]
[Round "8.25"]
[White "Kalvach, Ladislav"]
[Black "Kuhnmund, Ivan"]
[Result "1/2-1/2"]
[WhiteElo "1784"]
[BlackElo "1631"]
[ECO "B20"]
[PlyCount "0"]
[EventDate "2019.08.24"]
[Opening "Sicilian: Keres variation (2.Ne2)"]

1. e4 c5 2. Ne2 a6 3. c3 e5 4. d4 cxd4 5. cxd4 exd4 6. Nxd4 Nc6 7. Nxc6 bxc6
8. Bc4 Nf6 9. O-O d6 10. Qb3 d5 11. exd5 cxd5 12. Re1+ Be7 13. Bd3 O-O 14. Bg5
Be6 15. Nd2 Rb8 16. Qc2 h6 17. Bh4 Bd6 18. Nb3 Bxh2+ 19. Kh1 g5 20. Kxh2 gxh4
21. Qd2 Qd6+ 22. f4 Rb4 1/2-1/2