[Event "Pohár města Říčany 2018"]
[Site "Městské kulturní středisko U labutě"]
[Date "2019.08.30"]
[Round "8.26"]
[White "Horyna, Josef"]
[Black "Holub, Milan"]
[Result "1/2-1/2"]
[WhiteElo "1763"]
[BlackElo "1988"]
[ECO "E07"]
[PlyCount "0"]
[EventDate "2019.08.24"]
[Opening "Catalan: closed (6...Nbd7)"]

1. d4 Nf6 2. Nf3 e6 3. g3 Be7 4. Bg2 O-O 5. O-O d5 6. c4 Nbd7 7. cxd5 exd5
8. Nc3 c6 9. Qc2 h6 10. Rd1 Re8 11. e3 Bd6 12. b3 Nf8 13. Bb2 Bg4 14. Re1 Ne6
15. a3 Qd7 16. Ne5 Bxe5 17. dxe5 Nh7 18. f4 g6 19. Ne2 Bf5 20. Qc3 Qe7 21. Nd4
Nxd4 22. exd4 b5 23. b4 Nf8 24. a4 Be6 25. Ba3 Nd7 26. Rac1 1/2-1/2