[Event "Pohár města Říčany 2018"]
[Site "Městské kulturní středisko U labutě"]
[Date "2019.08.30"]
[Round "8.31"]
[White "Hampel, Rudolf"]
[Black "Hadrava, Jaroslav"]
[Result "0-1"]
[WhiteElo "1660"]
[BlackElo "1937"]
[ECO "C67"]
[PlyCount "0"]
[EventDate "2019.08.24"]
[Opening "Ruy Lopez: Berlin defence, open variation"]

1. e4 e5 2. Nf3 Nc6 3. Bb5 Nf6 4. O-O Nxe4 5. d4 Nd6 6. Bxc6 dxc6 7. Nxe5 Be7
8. Nc3 O-O 9. Bf4 Nf5 10. Nf3 Re8 11. Re1 Be6 12. Ne4 Bd5 13. c3 Nh4 14. Ned2
Nxf3+ 15. Nxf3 f6 16. Re3 Qd7 17. Qd3 Bd6 18. Bxd6 Rxe3 19. fxe3 cxd6 20. e4 Bf7
21. a3 Re8 22. Re1 Qg4 23. Qe3 h5 24. e5 Bd5 25. Rf1 b6 26. Qf2 fxe5 27. dxe5
Bxf3 28. Qxf3 Qxf3 29. Rxf3 Rxe5 30. Kf2 g6 31. Rd3 d5 32. Rd2 Kf7 33. h3 Ke6
34. g3 Kd6 35. Rc2 Kc5 36. b3 a5 37. b4+ Kc4 38. bxa5 bxa5 39. Rb2 Kxc3 40. Rb6
Re6 41. Ra6 d4 42. Rxa5 d3 43. Rc5+ Kb2 0-1
