[Event "Pohár města Říčany 2020"]
[Site "Městské kulturní středisko U labutě"]
[Date "2020.08.23"]
[Round "3.7"]
[White "Zvolensky, David"]
[Black "Petras, Milan"]
[Result "1-0"]
[WhiteElo "2048"]
[BlackElo "1996"]
[ECO "B09"]
[PlyCount "0"]
[EventDate "2020.08.22"]
[Opening "Pirc: Austrian attack, dragon formation"]

1. d4 g6 2. e4 d6 3. f4 Bg7 4. Nf3 Nf6 5. Nc3 c5 6. dxc5 Qa5 7. Qd4 Nc6 8. Bb5
O-O 9. Qa4 Qxa4 10. Bxa4 Bd7 11. O-O dxc5 12. e5 Ng4 13. h3 Nh6 14. Be3 b6
15. Rad1 Be8 16. g4 a6 17. Bb3 Na5 18. Nd5 c4 19. Nxb6 cxb3 20. Nxa8 bxc2
21. Rd8 f6 22. Nd4 Bf7 23. Rxf8+ Kxf8 24. e6 Bg8 25. f5 Nc4 26. Bc1 Nd6 27. Nc7
gxf5 28. gxf5 1-0