[Event "Pohár města Říčany 2018"]
[Site "Městské kulturní středisko"]
[Date "2019.08.25"]
[Round "2.22"]
[White "Kalvach, Ladislav"]
[Black "Zvolensky, David"]
[Result "0-1"]
[ECO "A00"]
[WhiteElo "1784"]
[BlackElo "2152"]
[PlyCount "82"]
[EventDate "2019.08.24"]

1. c4 Nf6 2. Nc3 g6 3. g3 Bg7 4. Bg2 O-O 5. e4 d6 6. d4 Nc6 7. Nge2 e5 8. d5
Ne7 9. O-O Nh5 10. Be3 f5 11. f4 Nf6 12. fxe5 Ng4 13. Bf4 dxe5 14. Bd2 Qd6 15.
b4 Qxb4 16. Na4 Qxc4 17. Rc1 Qa6 18. Rxc7 b5 19. Rxe7 bxa4 20. Nc3 Bf6 21. Re6
Bxe6 22. dxe6 Qb6+ 23. Kh1 Nf2+ 24. Rxf2 Qxf2 25. Nd5 Rae8 26. Bb4 Rxe6 27.
exf5 gxf5 28. Bxf8 Kxf8 29. Nxf6 Rxf6 30. Qd8+ Kf7 31. Bd5+ Kg6 32. h4 Qe3 33.
h5+ Kg5 34. Qg8+ Kh6 35. Qd8 Qb6 36. Qe8 Qd6 37. Bf7 e4 38. g4 Qd1+ 39. Kg2
Qe2+ 40. Kh1 Qxg4 41. Qf8+ Qg7 0-1