0
0
0
0
0
1
1
3
2
0
0
0
1
0
0
0
9
0
2
49
0
3
0
0
0
0
3
0
0
2
0
0
0
49
0
0
0
0
6
1
3
2
0
49
3
5
0
1
0
3
1
0
0
0
49
49
0
0
2
0
0
0
0
7
3
0
0
2
6
49
0
0
0
0
49
1
2
2
1
3
0
0
0
2
0
4
0
1
49
0
2
0
0
1
1
0
0
1
2
1
1
49
0
0
0
0
0
49
1
1
0
2
0
8
0
49
9
49
49
0
4
49
49
49
0
49
7
49
49
49
8
49
49
1
0
49
0
1
0
49
2
3
0
0
0
49
0
0
0
0
49
0
49
0
0
49
0
49
49
0
0
49
1
1
49
49
49
49
0
0
0
1
1
49
0
49
49
5
49
0
1
49
0
3
0
1
0
0
0
49
0
49
49
49
0
49
0
49
7
0
9
49
0
49
1
3
8
49
1
0
1
0
8
49
1
49
49
49
49
0
6
0
7
49
0
2
1
49
6
49
49
0
49
0
0
49
49
0
49
49
49
49
49
0
0
1
8
0
0
0
3
0
0
0
0
0
49
0
0
0
0
2
2
5
0
9
0
49
1
0
49
0
0
0
0
49
0
6
49
49
0
0
0
0
49
49
0
0
0
49
0
0
0
8
0
49
49
0
0
8
49
49
49
2
0
7
1
9
7
1
49
0
49
0
0
0
0
49
49
0
0
0
0
4
0
0
1
5
0
1
6
49
49
0
0
2
0
1
0
0
49
49
4
49
2
0
49
1
49
0
49
49
49
49
49
49
49
49
49
8
1
5
0
0
0
3
4
0
1
1
0
0
6
0
1
49
3
49
49
0
0
8
49
49
7
1
1
0
0
0
0
0
1
49
0
0
49
0
0
0
1
1
0
8
0
49
49
4
0
0
0
0
49
49
0
0
0
9
8
5
5
0
49
0
0
0
2
0
0
0
0
0
49
0
0
0
0
0
0
1
0
49
4
3
49
49
49
49
49
49
49
49
1
0
1
0
8
0
49
2
1
0
3
0
0
0
49
1
49
49
0
0
0
49
49
3
3
7
49
0
49
1
0
2
0
6
1
6
0
0
4
0
0
49
0
2
1
0
6
3
0
0
49
49
0
49
49
49
49
49
49
0
3
1
0
49
49
0
2
1
1
5
1
0
1
49
3
0
49
0
49
0
49
1
0
9
0
0
1
9
49
49
49
0
49
49
1
49
0
49
0
49
5
0
49
3
2
1
1
49
0
49
49
49
49
2
0
2
0
0
0
0
49
0
0
1
49
4
5
49
2
0
9
1
49
0
49
4
0
0
0
49
1
0
2
2
49
0
4
0
3
0
0
49
49
1
0
49
0
49
2
1
1
49
6
1
0
49
0
2
4
0
0
0
49
1
49
6
0
0
0
0
0
0
49
3
8
2
49
49
49
3
49
1
0
1
0
0
0
0
1
0
0
0
0
0
0
0
0
0
1
0
1
1
0
0
0
0
49
49
49
0
0
5
0
0
0
49
0
0
0
1
0
0
1
2
0
49
1
49
49
0
1
1
49
5
0
0
0
49
0
0
0
0
8
8
1
0
0
0
49
49
7
0
0
0
0
0
0
8
8
0
5
0
0
49
49
1
0
49
49
2
49
0
49
0
1
8
0
0
2
1
0
8
0
1
49
0
49
49
9
49
0
7
7
0
49
0
49
49
49
49
0
49
1
0
0
0
49
0
0
49
0
3
2
0
0
1
0
0
1
49
49
49
0
49
49
1
49
49
3
49
49
49
49
49
49
49
3
49
49
2
0
49
0
49
49
49
4
0
0
7
0
0
7
0
49
49
6
49
49
49
4
9
49
49
49
49
7
49
0
49
0
8
0
49
1
0
49
2
0
49
9
49
49
0
0
49
1
0
49
49
0
2
0
49
1
0
0
0
0
0
0
0
1
0
0
1
0
0
49
0
0
2
1
0
3
0
0
0
0
49
0
3
1
0
0
0
0
1
0
1
0
49
1
6
0
4
0
49
0
49
0
0
49
2
0
0
0
49
0
0
0
49
0
0
0
2
49
0
0
6
1
0
49
0
0
49
0
0
0
1
0
0
9
0
0
49
0
0
5
0
0
0
1
3
0
0
49
49
0
0
5
1
0
2
3
0
49
49
0
5
49
0
49
0
6
0
0
0
1
5
7
0
0
6
2
3
0
0
0
0
2
0
0
4
0
0
49
8
49
49
4
49
2
4
49
0
0
1
49
49
49
49
49
0
49
0
49
49
49
0
1
2
3
0
49
49
3
49
49
0
49
0
49
0
5
49
49
49
49
49
2
49
5
0
49
49
49
49
49
49
7
4
0
0
1
0
49
49
0
49
5
2
0
1
49
49
1
49
49
0
1
7
1
1
0
49
0
49
49
49
0
49
4
4
1
49
1
49
49
49
49
0
0
0
49
3
0
1
49
49
49
49
49
49
9
2
0
49
0
0
1
0
0
0
49
0
0
0
0
0
0
49
1
0
0
2
0
0
0
0
0
0
0
49
0
0
0
0
0
0
0
0
0
0
0
0
0
0
0
0
0
0
0
49
0
49
49
0
0
0
0
0
0
49
0
5
49
0
0
0
0
0
49
1
0
1
0
0
6
49
0
9
3
0
0
0
0
0
0
0
49
4
0
49
49
3
3
49
2
0
2
0
49
0
0
0
6
49
49
0
1
0
1
2
49
0
49
0
0
49
49
5
0
1
49
49
0
0
1
49
49
0
49
1
5
49
0
49
0
8
49
0
2
4
2
0
0
0
0
0
49
0
49
2
49
49
49
49
0
0
49
49
2
0
49
0
0
0
6
49
0
5
0
0
1
0
0
0
49
0
5
0
49
0
0
49
0
0
0
6
49
2
1
0
0
6
49
0
0
0
1
0
0
0
0
0
9
8
0
0
0
0
0
0
1
7
49
0
0
49
0
0
0
0
49
0
49
0
49
0
49
49
49
49
9
0
49
1
0
0
4
49
49
49
5
0
49
0
5
1
0
8
0
0
49
0
49
0
0
0
1
0
49
49
49
0
49
49
5
2
2
1
49
0
1
49
1
49
2
49
2
49
49
1
1
0
49
49
49
49
7
1
49
0
49
49
49
49
49
0
0
0
0
0
0
0
0
0
0
0
1
0
49
4
0
0
6
0
8
0
1
49
0
0
49
49
49
0
0
0
2
8
9
6
1
49
49
49
0
49
1
49
0
3
0
3
0
49
49
0
0
1
2
8
49
0
8
0
0
0
0
0
0
2
9
0
0
0
49
0
49
49
1
1
0
49
3
49
3
2
7
2
1
49
49
0
0
0
49
0
0
0
1
0
3
0
0
0
49
0
5
0
1
49
49
49
49
2
49
0
0
0
5
0
0
0
0
0
0
49
0
0
0
6
0
0
0
0
49
0
49
4
0
49
4
4
3
0
0
49
0
6
49
0
0
0
49
0
4
1
0
1
0
0
49
49
0
49
0
1
0
2
0
49
2
0
0
0
0
1
49
0
0
4
0
1
5
0
0
3
0
0
1
0
3
1
0
4
0
0
0
0
0
0
0
49
0
49
49
0
49
0
7
1
0
0
0
0
49
49
9
0
8
0
49
1
0
49
1
5
0
1
1
49
0
0
0
1
4
49
49
0
3
49
49
49
49
2
0
49
3
0
49
0
49
49
0
0
49
2
5
49
0
7
0
3
0
0
49
0
49
49
0
3
1
49
1
49
1
4
49
0
0
6
49
9
0
49
0
1
1
0
0
49
49
3
0
0
0
49
49
7
3
5
0
6
49
1
0
0
49
0
0
0
8
5
0
9
0
7
5
0
0
4
1
49
49
49
0
1
0
0
8
0
49
49
1
0
0
0
0
49
49
0
0
0
0
0
0
0
0
3
7
3
49
0
2
1
2
3
0
2
0
0
0
0
49
1
0
0
0
2
49
1
49
49
8
49
0
1
0
4
49
49
1
49
0
0
3
49
0
0
0
0
0
0
0
0
2
49
49
0
0
0
0
49
0
0
0
0
0
5
0
2
0
49
0
49
49
0
0
1
0
0
8
49
0
0
0
1
1
4
2
49
0
0
0
0
5
0
0
49
0
1
0
0
0
0
49
0
0
8
49
49
2
0
0
1
6
0
49
49
1
49
1
49
3
0
6
49
1
0
5
0
0
0
0
49
0
49
8
0
49
8
1
0
1
0
3
49
1
0
0
8
49
0
49
0
0
49
49
49
0
3
0
49
49
49
0
1
1
0
0
0
49
0
0
5
5
0
0
0
0
0
0
0
0
0
6
0
0
9
0
0
0
0
2
0
0
0
0
1
0
0
49
0
0
49
0
0
1
0
49
49
0
0
0
8
0
49
0
49
0
0
49
49
0
0
3
0
2
0
3
3
3
0
1
0
49
49
0
0
0
0
0
0
0
0
49
0
0
0
49
4
0
0
0
49
0
0
49
49
3
0
1
49
1
49
49
1
0
0
3
0
49
0
0
0
49
0
49
1
1
0
49
9
49
0
0
6
1
49
1
0
4
49
2
2
0
1
49
49
49
49
49
49
49
0
49
49
6
49
49
49
0
49
1
1
49
8
49
49
0
49
49
1
3
0
49
0
1
49
1
49
0
49
49
49
0
2
49
49
49
0
0
49
0
49
49
4
49
0
2
1
0
0
0
4
7
0
0
0
49
0
0
49
0
1
0
8
0
0
49
1
49
0
0
2
49
8
0
0
1
49
3
49
3
1
0
3
3
0
0
49
0
49
49
49
0
5
49
1
4
6
0
49
0
49
0
5
49
5
0
49
0
0
0
0
0
49
0
6
1
49
0
0
0
0
0
1
1
1
0
49
0
0
49
0
0
0
0
49
0
2
2
2
7
1
0
49
49
49
0
9
6
49
0
9
49
0
0
0
49
1
0
0
0
0
0
2
0
4
0
0
2
2
0
0
49
0
0
6
49
49
1
49
2
49
5
3
49
1
0
0
49
49
8
0
0
0
0
49
49
49
4
49
49
49
49
2
0
49
49
0
0
5
1
49
49
1
49
0
0
49
49
49
1
49
49
49
0
49
49
49
0
0
0
0
0
0
49
49
0
0
0
49
49
1
0
49
49
8
4
0
49
0
0
5
0
0
0
49
7
0
7
49
49
0
49
0
0
49
7
49
9
0
0
4
0
0
6
1
0
49
2
49
1
0
49
0
0
0
2
49
1
0
0
49
0
8
0
49
0
49
9
0
0
49
0
7
0
0
0
1
49
0
49
1
0
0
0
0
3
2
0
49
49
49
49
0
0
0
0
0
0
0
0
0
49
0
49
49
8
0
49
49
0
8
0
0
49
0
49
1
3
49
0
49
49
0
5
0
3
0
49
49
49
49
1
49
0
0
1
2
49
49
0
49
49
49
49
0
1
0
49
49
0
0
49
0
8
49
0
0
0
49
49
49
0
0
49
49
49
49
0
49
49
0
4
49
6
2
0
0
0
49
49
2
0
0
49
0
49
0
0
8
5
49
49
0
0
49
49
49
49
49
49
6
1
1
0
0
49
0
0
49
49
49
49
0
0
0
0
49
0
1
0
0
0
49
1
49
1
0
49
49
1
7
49
49
2
1
0
0
1
49
1
49
0
0
0
0
0
0
0
0
49
0
1
0
49
49
49
0
1
7
6
8
49
49
6
49
1
49
49
49
0
1
5
49
49
0
49
0
49
8
49
1
1
1
49
0
0
49
0
8
0
49
49
6
4
49
49
8
49
49
8
49
0
49
49
49
0
49
0
49
1
49
0
49
0
49
49
1
0
0
0
0
1
0
0
0
0
49
0
3
0
0
49
0
49
1
0
49
3
49
0
49
0
6
0
49
49
49
0
49
49
0
49
49
49
0
0
0
0
9
0
0
49
4
0
0
49
49
9
0
49
49
49
49
0
5
49
49
49
49
1
49
0
0
0
0
5
49
0
49
2
49
49
0
49
1
0
0
49
0
0
3
49
6
49
2
1
0
0
0
0
0
4
1
0
3
0
1
0
49
0
0
0
0
1
0
0
0
1
0
7
49
0
49
0
0
0
49
5
1
49
0
0
0
1
0
0
0
1
0
0
49
9
0
3
3
0
3
49
49
49
49
49
49
49
49
49
0
0
2
0
0
0
0
2
0
7
49
0
1
0
0
0
0
0
0
8
1
0
6
0
49
49
1
49
2
49
49
49
49
1
3
49
2
49
49
49
7
49
0
1
2
0
0
49
0
49
7
0
49
1
0
49
0
2
49
1
2
0
49
49
0
0
1
0
1
0
0
0
49
49
5
0
8
0
2
2
1
0
49
1
3
5
0
1
1
1
1
0
0
2
4
0
49
49
0
0
1
1
49
1
8
4
0
0
3
5
0
0
0
2
0
0
3
0
49
3
3
49
1
8
2
49
6
5
0
2
0
0
49
1
49
1
0
0
1
3
0
1
2
3
0
0
5
4
2
0
0
0
0
0
0
0
49
0
0
2
5
2
0
0
0
0
0
0
0
0
0
0
49
0
0
0
0
49
0
0
0
0
1
49
49
0
0
49
49
49
7
0
49
0
2
1
49
0
9
1
1
49
0
8
0
0
0
49
49
0
0
49
49
0
49
0
0
49
49
49
49
49
49
49
0
0
1
49
49
3
0
0
1
0
2
0
1
1
4
0
0
0
0
0
0
0
0
0
0
49
0
2
4
49
0
1
49
1
0
1
1
49
49
0
0
0
0
0
49
4
0
0
6
0
0
0
0
0
49
2
0
49
1
0
3
0
0
0
49
9
0
0
0
49
0
2
49
49
49
5
49
49
49
49
49
49
49
49
49
0
0
0
0
0
0
0
0
6
1
1
49
0
0
0
0
0
49
0
0
0
0
0
49
1
0
7
8
0
2
0
0
0
0
8
0
0
49
0
49
0
0
0
0
49
1
49
1
49
0
7
6
0
0
49
7
5
8
0
49
49
7
2
49
1
2
0
0
49
49
0
0
49
49
49
49
49
49
1
49
2
0
0
0
0
0
0
1
3
0
1
0
49
49
0
9
2
0
8
0
0
0
49
8
0
49
1
49
49
0
49
49
49
0
49
49
0
0
49
49
0
49
0
0
0
49
1
49
0
49
0
0
0
0
49
49
1
49
49
49
49
49
49
6
0
49
49
49
0
49
49
49
0
0
0
4
0
1
8
8
0
1
0
0
49
7
49
49
0
49
49
49
9
0
1
0
5
1
0
49
0
0
0
0
2
0
49
0
0
0
49
49
2
3
0
0
1
0
0
0
0
0
0
7
0
49
0
0
5
0
1
49
0
7
49
49
0
2
49
3
0
49
49
0
0
49
0
3
1
0
5
49
0
49
0
49
49
49
0
7
0
49
0
2
0
0
49
0
49
0
0
0
3
49
0
0
49
49
0
1
0
0
0
0
0
0
49
0
0
5
49
49
0
0
0
49
49
6
2
49
49
49
49
0
49
1
49
49
2
49
49
0
0
49
1
4
0
6
49
0
0
49
49
6
0
2
4
4
0
0
9
49
6
0
0
0
0
0
0
2
49
0
0
0
49
1
0
0
0
1
0
0
0
49
0
49
0
6
49
49
0
49
3
0
0
1
5
8
49
49
0
0
3
49
49
1
9
49
49
3
0
0
3
1
0
0
0
0
3
0
9
9
8
3
49
0
0
1
8
0
0
0
49
49
49
49
49
0
6
1
49
2
0
9
1
8
49
4
49
1
0
0
49
49
5
49
0
0
9
2
0
0
0
0
0
0
0
0
0
2
0
0
0
0
0
0
0
0
49
2
0
6
0
0
0
49
0
1
0
7
0
2
1
0
5
49
49
0
0
0
0
0
0
0
0
0
0
1
0
49
49
0
1
49
49
0
0
49
49
49
0
0
0
1
5
49
0
0
1
0
0
49
49
49
0
0
0
1
0
0
0
49
0
0
0
0
8
1
0
0
1
0
8
0
0
49
0
9
0
0
0
49
0
0
0
49
0
0
0
0
3
1
0
49
0
0
0
1
49
0
0
2
0
49
0
49
49
49
0
0
0
0
0
8
0
3
1
0
0
0
1
5
1
49
0
5
0
0
7
0
8
0
0
0
0
49
0
0
8
49
0
0
2
0
2
0
0
0
1
1
49
49
0
0
49
49
49
1
49
49
0
49
49
4
0
49
0
2
1
5
49
49
0
49
49
4
0
0
1
49
0
0
49
0
49
0
0
49
0
49
0
49
1
3
0
49
0
49
9
0
49
0
2
0
7
49
49
49
0
5
49
0
0
0
49
1
49
1
3
49
49
49
49
4
49
1
49
0
0
49
49
0
7
0
49
49
6
2
3
49
49
1
0
49
49
0
0
4
49
49
1
49
49
3
49
2
0
0
0
5
49
49
0
0
0
1
0
0
49
0
0
1
0
2
3
0
0
0
1
9
49
5
0
3
1
0
0
0
1
49
0
0
0
49
0
49
3
49
1
0
0
49
0
0
0
1
2
1
0
0
0
49
0
0
0
3
0
0
0
49
0
0
1
1
6
1
0
0
1
0
0
49
0
49
1
1
49
0
1
0
49
0
5
0
5
0
1
0
2
2
0
1
0
0
49
1
0
0
0
0
0
49
0
0
0
2
3
49
0
0
0
2
0
4
0
49
1
0
2
3
49
0
49
49
49
49
0
0
49
5
0
2
0
3
0
5
5
49
3
0
0
9
2
1
1
49
49
9
1
0
0
49
1
0
0
0
0
0
0
0
0
49
0
0
0
0
0
2
49
0
0
0
1
0
1
1
7
1
4
0
0
0
0
2
0
49
49
1
0
1
1
49
1
49
0
2
0
0
0
0
0
49
2
0
49
49
5
49
0
49
0
0
0
0
0
1
49
1
1
2
0
0
49
49
49
49
0
49
0
8
1
49
0
0
5
1
49
1
49
8
1
49
0
0
2
0
0
0
0
0
8
6
2
0
0
0
49
0
0
0
0
0
1
0
0
0
7
1
0
3
0
0
0
1
0
49
0
4
0
0
49
1
0
0
1
0
49
1
49
49
0
0
9
0
49
0
49
49
2
0
1
0
0
0
0
0
0
0
0
3
0
0
1
1
0
49
49
1
49
0
49
0
0
1
49
1
49
49
6
0
0
5
1
49
49
49
3
49
49
0
0
49
1
3
49
49
49
49
0
0
2
5
0
0
49
0
49
49
49
49
49
0
0
49
0
49
3
0
6
3
0
49
8
0
0
49
49
49
0
0
8
6
0
0
0
0
49
0
0
0
0
49
1
0
0
0
49
1
49
0
0
0
0
0
0
0
0
0
0
0
0
0
49
1
1
0
7
0
49
0
0
0
0
49
0
0
0
0
0
0
0
0
1
1
1
0
0
0
3
1
0
0
49
49
0
0
0
0
49
0
49
9
49
2
0
49
49
49
0
1
49
49
0
49
1
49
49
49
0
1
8
6
0
0
1
0
2
0
0
0
1
0
0
0
0
0
0
49
49
0
0
49
49
0
0
0
0
1
0
49
0
0
0
49
0
0
49
49
0
49
8
49
1
0
0
0
49
0
0
0
0
1
0
49
3
0
0
0
0
0
0
0
4
0
4
0
2
0
3
8
0
0
49
2
0
