[Event "Pohár města Říčany 2020"]
[Site "Městské kulturní středisko U labutě"]
[Date "2020.08.24"]
[Round "4.20"]
[White "Holub, Adam"]
[Black "Rudiano, Nicolas"]
[Result "1-0"]
[WhiteElo "1746"]
[BlackElo "2077"]
[ECO "A04"]
[PlyCount "0"]
[EventDate "2020.08.22"]
[Opening "Reti opening"]

1. Nf3 1-0