[Event "Pohár města Říčany 2018"]
[Site "Městské kulturní středisko"]
[Date "2019.08.25"]
[Round "3.32"]
[White "Hampel, Rudolf"]
[Black "Bartos, Vaclav"]
[Result "0-1"]
[ECO "B40"]
[WhiteElo "1660"]
[BlackElo "1809"]
[PlyCount "79"]
[EventDate "2019.08.24"]

1. e4 c5 2. Nf3 e6 3. d4 cxd4 4. Nxd4 Qb6 5. Nb3 a6 6. Be2 Qc7 7. O-O b5 8. Be3
Bb7 9. N1d2 Nf6 10. f3 Be7 11. Bd3 d6 12. Qe1 Nbd7 13. c3 e5 14. Rc1 h5 15. a3
Nc5 16. Nxc5 dxc5 17. c4 b4 18. axb4 cxb4 19. h3 h4 20. Qf2 Nh5 21. Rfd1 Nf4
22. Bc2 Rh6 23. Kh2 Rg6 24. Bxf4 exf4 25. Qe2 Qe5 26. Ba4+ Kf8 27. Nb3 Qg5 28.
Qf2 Bc8 29. Bd7 a5 30. Rd5 Qg3+ 31. Qxg3 fxg3+ 32. Kg1 Bxd7 33. Rxd7 a4 34. Nd2
a3 35. bxa3 bxa3 36. Nb3 Rb6 37. Rd3 a2 38. Na1 Rb1 39. Rdd1 Rab8 40. Kf1 0-1

