[Event "Pohár města Říčany 2018"]
[Site "Městské kulturní středisko U labutě"]
[Date "2019.08.28"]
[Round "6.1"]
[White "Mladek, Richard"]
[Black "Vojta, Tomas"]
[Result "1/2-1/2"]
[ECO "A00"]
[WhiteElo "2266"]
[BlackElo "2363"]
[PlyCount "0"]
[EventDate "2019.08.24"]

1. e4 c6 2. d4 d5 3. e5 Qb6 4. Nc3 Bf5 5. g4 Bd7 6. a3 e6
7. Na4 Qc7 8. Nf3 h5 9. gxh5 Nh6 10. Bh3 b6
11. c3 c5 12. O-O c4 13. b4 cxb3 14. Qxb3 Nc6 15. Nb2 Na5 16. Qc2 Rc8 17. Bd2 Nf5
18. Bg4 Be7 19. Kh1 Nc4 20. Nxc4 Qxc4 21. Rg1 Nxd4 
22. Nxd4 Qxd4 23. cxd4 Rxc2 24. Be3 Rc3 25. a4 O-O
26. Bh6 Rd8 27. Be2 Bf8 28. Bxg7 Bxg7 29. h6 Rh3 30. Rxg7+ Kf8 31. Rh7 Kg8 
32. Rg7+ Kf8 33. Rag1 Rxh6 34. Rg8+ Ke7 35. Rxd8 Kxd8 
36. Rg8+ Ke7 37. Ra8 a5
38. Ra7 Ke8 39. Ra8+ Ke7 40. Ra7 Ke8 41. Ra8+ 1/2-1/2