[Event "Pohár města Říčany 2018"]
[Site "Městské kulturní středisko U labutě"]
[Date "2019.08.28"]
[Round "6.11"]
[White "Groh, Jiri"]
[Black "Maly, Filip"]
[Result "1-0"]
[WhiteElo "2001"]
[BlackElo "1941"]
[ECO "A04"]
[PlyCount "0"]
[EventDate "2019.08.24"]
[Opening "Reti-KID"]

1. Nf3 Nf6 2. c4 g6 3. Nc3 Bg7 4. e3 d6 5. Be2 O-O 6. O-O Nc6 7. d4 e5 8. d5
Ne7 9. e4 Nd7 10. Be3 f5 11. Ng5 Nf6 12. exf5 Nxf5 13. Qd2 Nd4 14. Bxd4 exd4
15. Qxd4 Ng4 16. Qd2 Be5 17. f4 Bg7 18. Ne6 Bxe6 19. dxe6 Nxh2 20. Kxh2 Qh4+
21. Kg1 c5 22. e7 Rf7 23. Ne4 Bd4+ 24. Rf2 Rxf4 25. Bd3 1-0