[Event "Pohár města Říčany 2018"]
[Site "Městské kulturní středisko U labutě"]
[Date "2019.08.28"]
[Round "6.17"]
[White "Hejsek, Lukas"]
[Black "Nemecek, Pavel"]
[Result "1/2-1/2"]
[WhiteElo "1948"]
[BlackElo "1801"]
[ECO "E60"]
[PlyCount "0"]
[EventDate "2019.08.24"]
[Opening "Modern: King's Indian, fianchetto variation"]

1. d4 Nf6 2. Nf3 g6 3. g3 Bg7 4. Bg2 d6 5. O-O O-O 6. c4 Nc6 7. d5 Na5 8. Nfd2
c5 9. Nc3 Nd7 10. Qc2 a6 11. a4 Rb8 12. Rb1 Ne5 13. b3 Bd7 14. h3 f5 15. f4 Nf7
16. Nf3 b5 17. axb5 axb5 18. cxb5 Bxb5 19. b4 cxb4 20. Nxb5 Rxb5 21. Qd3 Rc5
22. Rxb4 Rc3 23. Qd1 Qc7 24. Ra4 Rc8 25. Bd2 Rc5 26. Bb4 Nc4 27. Bxc5 Qxc5+
28. Kh2 Ne3 29. Qd3 Nxf1+ 30. Bxf1 Qf2+ 31. Bg2 h6 32. Rc4 Rc5 33. Rxc5 dxc5
34. e3 Nd6 35. Qd2 Ne4 36. Qxf2 Nxf2 37. Nd2 Nd1 1/2-1/2