[Event "Pohár města Říčany 2018"]
[Site "Městské kulturní středisko U labutě"]
[Date "2019.08.28"]
[Round "6.24"]
[White "Smolik, Jachym"]
[Black "Kuhnmund, Ivan"]
[Result "1/2-1/2"]
[WhiteElo "1891"]
[BlackElo "1631"]
[ECO "A83"]
[PlyCount "0"]
[EventDate "2019.08.24"]
[Opening "Dutch: Staunton gambit, Chigorin variation"]

1. d4 f5 2. e4 fxe4 3. Nc3 Nf6 4. Bg5 c6 5. Bxf6 exf6 6. Qh5+ g6 7. Qe2 d5
8. O-O-O Bb4 9. Nb1 b5 10. Qe3 Qa5 11. f3 f5 12. Qf4 Be7 13. Qe5 Rg8 14. Ne2 Kf7
15. h4 Re8 16. Qf4 exf3 17. Qxf3 Nd7 18. g4 Nf6 19. gxf5 Bxf5 20. Rg1 Bf8
21. Qf4 Re4 22. Qd2 Bb4 23. c3 Bd6 24. b4 Qc7 25. Bg2 Rxe2 26. Qxe2 Bf4+ 27. Kb2
1/2-1/2
