[Event "Pohár města Říčany 2018"]
[Site "Městské kulturní středisko U labutě"]
[Date "2019.08.28"]
[Round "6.29"]
[White "Day, Tobias"]
[Black "Dome, Michal"]
[Result "1/2-1/2"]
[WhiteElo "1761"]
[BlackElo "1799"]
[ECO "C00"]
[PlyCount "0"]
[EventDate "2019.08.24"]
[Opening "French: Reti (Spielmann) variation"]

1. e4 e6 2. b3 d5 3. Bb2 Nf6 4. e5 Nfd7 5. f4 c5 6. Nf3 Nc6 7. d3 b6 8. Nbd2
Bb7 9. Be2 Qc7 10. O-O d4 11. Ne4 Nb4 12. c3 Nd5 13. Qd2 dxc3 14. Bxc3 Be7
15. Rac1 Rc8 16. d4 Qb8 17. Rc2 a6 18. Qc1 Nxc3 19. Nxc3 cxd4 20. Na4 b5 21. Nb2
Nb6 22. Rd1 Qa8 23. Nd3 Be4 24. Kf2 O-O 25. g3 Nd5 26. Nxd4 Bxd3 27. Bxd3 Nb4
28. Rc7 Nxd3+ 1/2-1/2