[Event "Pohár města Říčany 2018"]
[Site "Městské kulturní středisko U labutě"]
[Date "2019.08.28"]
[Round "6.33"]
[White "Kalvach, Ladislav"]
[Black "Feierfeil, Jiri"]
[Result "1-0"]
[WhiteElo "1784"]
[BlackElo "1671"]
[ECO "B20"]
[PlyCount "0"]
[EventDate "2019.08.24"]
[Opening "Sicilian: Keres variation (2.Ne2)"]

1. e4 c5 2. Ne2 d6 3. g3 Nc6 4. Bg2 g6 5. c3 Bg7 6. O-O e5 7. Na3 Nge7 8. Nc2
O-O 9. h3 f5 10. d3 Be6 11. Be3 Qd7 12. Kh2 Rad8 13. Qd2 b6 14. Bh6 f4 15. Bxg7
fxg3+ 16. Nxg3 Kxg7 17. Qg5 Kh8 18. f4 Rf7 19. fxe5 Rdf8 20. d4 cxd4 21. cxd4
Bc4 22. Rxf7 Rxf7 23. Ne3 Ba6 24. exd6 Qxd6 25. d5 Ne5 26. Ng4 Nxg4+ 27. hxg4
Rf2 28. Rd1 Bc8 29. b4 Kg7 30. e5 Qxb4 31. d6 Nc6 32. Nh5+ Kf7 33. d7 Bb7
34. Kh1 Rxg2 35. Qf6+ 1-0

