[Event "Pohár města Říčany 2020"]
[Site "Městské kulturní středisko U labutě"]
[Date "2020.08.23"]
[Round "3.20"]
[White "Vavrinec, Tomas"]
[Black "Pecka, Jan"]
[Result "1-0"]
[WhiteElo "1927"]
[BlackElo "1610"]
[ECO "A19"]
[PlyCount "0"]
[EventDate "2020.08.22"]
[Opening "English: Mikenas-Carls, Sicilian variation"]

1. c4 Nf6 2. Nc3 e6 3. e4 c5 4. e5 Ng8 5. Nf3 Nc6 6. d4 cxd4 7. Nxd4 Nxe5
8. Bf4 Ng6 9. Bg3 a6 10. Qa4 e5 11. Nf5 Qb6 12. O-O-O Qc6 13. Bd3 N8e7 14. Be4
Nxf5 15. Bxc6 bxc6 16. Rhe1 Nxg3 17. hxg3 f5 18. f4 e4 19. g4 Nxf4 20. gxf5 Be7
21. Rxe4 Nh5 22. Qb4 1-0