[Event "Pohár města Říčany 2018"]
[Site "Městské kulturní středisko"]
[Date "2019.08.24"]
[Round "1.22"]
[White "Day, Tobias"]
[Black "Stojkovic, Andreja"]
[Result "1-0"]
[ECO "A00"]
[WhiteElo "1761"]
[BlackElo "1968"]
[PlyCount "91"]
[EventDate "2019.08.24"]

1. e4 c5 2. Nf3 Nf6 3. Nc3 Nc6 4. Bb5 Nd4 5. e5 Nxb5 6. Nxb5 Nd5 7. Nc3 Nxc3 8.
dxc3 e6 9. Bf4 Be7 10. Qd3 O-O 11. O-O-O a5 12. c4 a4 13. a3 Ra6 14. Nd2 f5 15.
Nb1 g5 16. Bd2 d5 17. Qg3 f4 18. Qg4 Qc7 19. Rde1 d4 20. h4 Rf5 21. hxg5 Rxe5
22. g6 Rxe1+ 23. Bxe1 h6 24. Rxh6 Bf6 25. Nd2 e5 26. Qh5 Bg7 27. Rh7 Qe7 28.
Ne4 Bd7 29. f3 Be8 30. Bh4 Bxg6 31. Bxe7 Bxh5 32. Rxh5 Re6 33. Bxc5 Rc6 34. b3
axb3 35. cxb3 b5 36. cxb5 Rc8 37. Kd2 Rb8 38. b6 Kf7 39. a4 Kg6 40. Rg5+ Kf7
41. Nd6+ Kf6 42. Rxg7 Kxg7 43. b7 e4 44. Ba7 exf3 45. gxf3 Rh8 46. Bxd4+ 1-0