[Event "Pohár města Říčany 2018"]
[Site "Městské kulturní středisko"]
[Date "2019.08.25"]
[Round "2.16"]
[White "Otruba, Marek"]
[Black "Cervenka, Petr"]
[Result "1-0"]
[ECO "A00"]
[WhiteElo "2133"]
[BlackElo "1850"]
[PlyCount "51"]
[EventDate "2019.08.24"]

1. d4 Nf6 2. c4 e5 3. dxe5 Ne4 4. Nd2 Bb4 5. a3 Ba5 6. b4 Nxf2 7. Kxf2 Qh4+ 8.
Ke3 d5 9. Ngf3 d4+ 10. Kd3 Bf5+ 11. e4 dxe3+ 12. Kxe3 Qe7 13. Bb2 Nc6 14. Qa4
O-O-O 15. c5 Rd5 16. Nc4 Rhd8 17. Be2 Rxc5 18. Rhd1 b5 19. Rxd8+ Qxd8 20. Qd1
Rd5 21. Nd6+ Rxd6 22. exd6 Bb6+ 23. Kd2 Bf2 24. Bd3 Qxd6 25. Ke2 Bb6 26. Bxf5+
1-0