[Event "Pohár města Říčany 2018"]
[Site "Městské kulturní středisko"]
[Date "2019.08.25"]
[Round "2.9"]
[White "Elias, Jakub"]
[Black "Vavrinec, Tomas"]
[Result "1/2-1/2"]
[ECO "A00"]
[WhiteElo "1836"]
[BlackElo "1994"]
[PlyCount "67"]
[EventDate "2019.08.24"]

1. e4 e6 2. d4 d5 3. Nc3 dxe4 4. Nxe4 Be7 5. Nf3 Nf6 6. Bd3 Nbd7 7. O-O Nxe4 8.
Bxe4 Nf6 9. Bd3 O-O 10. Re1 b6 11. Bg5 Bb7 12. c3 c5 13. Bxf6 Bxf6 14. dxc5
bxc5 15. Qe2 Qb6 16. Ne5 Rad8 17. Nc4 Qc7 18. Rad1 Bd5 19. Bb1 g6 20. Ne3 Bb7
21. Ng4 Bg7 22. Be4 Bc8 23. Bf3 Qa5 24. a3 Bd7 25. Ne5 Bb5 26. Qe3 Qb6 27. Rxd8
Rxd8 28. Qf4 Be8 29. b4 cxb4 30. cxb4 Qa6 31. Re3 Rc8 32. h4 Rc1+ 33. Kh2 f6
34. Ng4 1/2-1/2