[Event "Pohár města Říčany 2018"]
[Site "Městské kulturní středisko U labutě"]
[Date "2019.08.31"]
[Round "9.3"]
[White "Rut, Vojtech"]
[Black "Vojta, Tomas"]
[Result "1/2-1/2"]
[WhiteElo "2115"]
[BlackElo "2363"]
[ECO "B01"]
[PlyCount "0"]
[EventDate "2019.08.24"]
[Opening "Scandinavian: Pytel-Wade variation"]

1. e4 d5 2. exd5 Qxd5 3. Nc3 Qd6 4. d4 Nf6 1/2-1/2