[Event "Pohár města Říčany 2018"]
[Site "Městské kulturní středisko U labutě"]
[Date "2019.08.30"]
[Round "8.2"]
[White "Petr, Jakub"]
[Black "Neuman, Petr"]
[Result "1/2-1/2"]
[WhiteElo "2307"]
[BlackElo "2392"]
[ECO "A45"]
[PlyCount "0"]
[EventDate "2019.08.24"]
[Opening "Trompovsky attack (Ruth, Opovcensky opening)"]

1. d4 Nf6 2. Bg5 d5 3. Bxf6 gxf6 4. c4 dxc4 5. e3 a6 6. Bxc4 e6 7. Qh5 Rg8
8. Nf3 Rxg2 9. Nc3 Rg6 10. O-O-O Rh6 11. Qg4 Rg6 12. Qh5 Rh6 13. Qg4 Rg6 14. Qh4
Rh6 15. Qg4 Rg6 1/2-1/2